[
    {"id": 0, "name": "Squat", "sets": 5, "reps": 5},
    {"id": 1, "name": "Leg Press", "sets": 5, "reps": 5},
    {"id": 2, "name": "Shoulder Press", "sets": 5, "reps": 5},
    {"id": 3, "name": "Ab Roller", "sets": 5, "reps": 5},
    {"id": 4, "name": "Barbell Row", "sets": 5, "reps": 5},
    {"id": 5, "name": "Bench Press", "sets": 5, "reps": 5},
    {"id": 6, "name": "Cable Fly", "sets": 5, "reps": 5},
    {"id": 7, "name": "Deadlift", "sets": 5, "reps": 5},
    {"id": 8, "name": "Lateral Raises", "sets": 5, "reps": 5},
    {"id": 9, "name": "Bicep Curls", "sets": 5, "reps": 5},
    {"id": 10, "name": "Barbell Shoulder Press", "sets": 5, "reps": 5},
    {"id": 11, "name": "Dumbbell Chest Press", "sets": 5, "reps": 5},
    {"id": 12, "name": "Hammer Curls", "sets": 5, "reps": 5},
    {"id": 13, "name": "Triceps Extensions ", "sets": 5, "reps": 5},
    {"id": 14, "name": "Dumbbell Single Arm Row", "sets": 5, "reps": 5},
    {"id": 15, "name": "Sqaut", "sets": 10, "reps": 10},
    {"id": 16, "name": "Sqaut", "sets": 2, "reps": 4}
]
